127.0.0.1 - - [05/Sep/2018:21:58:17 +0300] "GET / HTTP/1.1" 404 1074
0:0:0:0:0:0:0:1 - - [05/Sep/2018:21:58:18 +0300] "GET /WebProjectTwo/ HTTP/1.1" 200 418
127.0.0.1 - - [05/Sep/2018:22:52:17 +0300] "GET / HTTP/1.1" 404 1074
0:0:0:0:0:0:0:1 - - [05/Sep/2018:22:52:18 +0300] "GET /Calculator/ HTTP/1.1" 200 1007
127.0.0.1 - - [05/Sep/2018:23:00:52 +0300] "GET / HTTP/1.1" 404 1074
0:0:0:0:0:0:0:1 - - [05/Sep/2018:23:00:53 +0300] "GET /Calculator/ HTTP/1.1" 200 1007
0:0:0:0:0:0:0:1 - - [05/Sep/2018:23:01:05 +0300] "POST /Calculator/send HTTP/1.1" 200 16
0:0:0:0:0:0:0:1 - - [05/Sep/2018:23:02:04 +0300] "POST /Calculator/send HTTP/1.1" 200 16
127.0.0.1 - - [05/Sep/2018:23:02:37 +0300] "GET / HTTP/1.1" 404 1074
0:0:0:0:0:0:0:1 - - [05/Sep/2018:23:02:38 +0300] "GET /Calculator/ HTTP/1.1" 200 1008
0:0:0:0:0:0:0:1 - - [05/Sep/2018:23:02:58 +0300] "POST /Calculator/send HTTP/1.1" 200 11
0:0:0:0:0:0:0:1 - - [05/Sep/2018:23:03:45 +0300] "GET /Calculator/ HTTP/1.1" 200 1008
0:0:0:0:0:0:0:1 - - [05/Sep/2018:23:03:53 +0300] "POST /Calculator/send HTTP/1.1" 200 11
0:0:0:0:0:0:0:1 - - [05/Sep/2018:23:04:13 +0300] "POST /Calculator/send HTTP/1.1" 200 11
