127.0.0.1 - - [06/Sep/2018:22:24:07 +0300] "GET / HTTP/1.1" 404 1074
0:0:0:0:0:0:0:1 - - [06/Sep/2018:22:24:08 +0300] "GET /Calculator/ HTTP/1.1" 200 1008
0:0:0:0:0:0:0:1 - - [06/Sep/2018:22:24:15 +0300] "POST /Calculator/send HTTP/1.1" 200 13
0:0:0:0:0:0:0:1 - - [06/Sep/2018:22:24:24 +0300] "POST /Calculator/send HTTP/1.1" 200 13
0:0:0:0:0:0:0:1 - - [06/Sep/2018:22:24:39 +0300] "POST /Calculator/send HTTP/1.1" 200 17
0:0:0:0:0:0:0:1 - - [06/Sep/2018:22:24:46 +0300] "POST /Calculator/send HTTP/1.1" 200 15
0:0:0:0:0:0:0:1 - - [06/Sep/2018:22:24:52 +0300] "POST /Calculator/send HTTP/1.1" 200 15
0:0:0:0:0:0:0:1 - - [06/Sep/2018:22:24:59 +0300] "POST /Calculator/send HTTP/1.1" 200 16
0:0:0:0:0:0:0:1 - - [06/Sep/2018:22:25:05 +0300] "POST /Calculator/send HTTP/1.1" 200 15
0:0:0:0:0:0:0:1 - - [06/Sep/2018:22:25:12 +0300] "POST /Calculator/send HTTP/1.1" 200 17
0:0:0:0:0:0:0:1 - - [06/Sep/2018:22:25:27 +0300] "GET /Calculator/ HTTP/1.1" 200 1008
0:0:0:0:0:0:0:1 - - [06/Sep/2018:22:25:40 +0300] "POST /Calculator/send HTTP/1.1" 200 16
0:0:0:0:0:0:0:1 - - [06/Sep/2018:22:25:58 +0300] "POST /Calculator/send HTTP/1.1" 200 15
0:0:0:0:0:0:0:1 - - [06/Sep/2018:22:26:07 +0300] "POST /Calculator/send HTTP/1.1" 200 26
0:0:0:0:0:0:0:1 - - [06/Sep/2018:22:26:19 +0300] "POST /Calculator/send HTTP/1.1" 200 15
0:0:0:0:0:0:0:1 - - [06/Sep/2018:22:26:26 +0300] "POST /Calculator/send HTTP/1.1" 200 17
0:0:0:0:0:0:0:1 - - [06/Sep/2018:22:26:34 +0300] "POST /Calculator/send HTTP/1.1" 200 15
127.0.0.1 - - [06/Sep/2018:23:13:44 +0300] "GET / HTTP/1.1" 404 1074
0:0:0:0:0:0:0:1 - - [06/Sep/2018:23:13:44 +0300] "GET /Calculator/ HTTP/1.1" 200 1008
0:0:0:0:0:0:0:1 - - [06/Sep/2018:23:14:01 +0300] "POST /Calculator/send HTTP/1.1" 200 16
0:0:0:0:0:0:0:1 - - [06/Sep/2018:23:14:09 +0300] "POST /Calculator/send HTTP/1.1" 200 15
0:0:0:0:0:0:0:1 - - [06/Sep/2018:23:14:17 +0300] "POST /Calculator/send HTTP/1.1" 200 17
0:0:0:0:0:0:0:1 - - [06/Sep/2018:23:14:25 +0300] "POST /Calculator/send HTTP/1.1" 200 15
